{
  "wordText": "broadcast",
  "phoneticScript": "/ˈbrɔːdkɑːst/",
  "syllable": "broad-cast",
  "definitions": [
    {
      "type": "verb",
      "definitionText": "transmit (a programme or some information) by radio or television",
      "examples": [
        "the announcement was broadcast live",
        "the second method is to broadcast the seeds together with not more than 1 kg to the acre of rapeseed"
      ],
      "synonyms": [
        "transmit", "relay", "air"
      ],
      "otherLanguages": {
        "telugu": "ప్రసారం",
        "tamil": "ஒளிபரப்பு",
        "hindi": "प्रसारण"
      }
    }, {
      "type": "noun",
      "definitionText": "a radio or television programme or transmission",
      "examples": [
        "the Queen's annual Christmas TV broadcast",
        "the second method is to broadcast the seeds together with not more than 1 kg to the acre of rapeseed"
      ],
      "synonyms": [
        	"programme", "show", "production"
      ]
    }
  ],
  "tags": [
    "technical", "advanced"
  ]
}
